{"help": "https://data.gov.sg/api/3/action/help_show?name=datastore_search", "success": true, "result": {"resource_id": "eb8b932c-503c-41e7-b513-114cffbe2338", "fields": [{"type": "int4", "id": "_id"}, {"type": "numeric", "id": "year"}, {"type": "text", "id": "sex"}, {"type": "text", "id": "type_of_course"}, {"type": "text", "id": "no_of_graduates"}], "records": [{"_id": 1, "sex": "Males", "no_of_graduates": "na", "type_of_course": "Education", "year": "1993"}, {"_id": 2, "sex": "Males", "no_of_graduates": "na", "type_of_course": "Applied Arts", "year": "1993"}, {"_id": 3, "sex": "Males", "no_of_graduates": "481", "type_of_course": "Humanities & Social Sciences", "year": "1993"}, {"_id": 4, "sex": "Males", "no_of_graduates": "na", "type_of_course": "Mass Communication", "year": "1993"}, {"_id": 5, "sex": "Males", "no_of_graduates": "295", "type_of_course": "Accountancy", "year": "1993"}, {"_id": 6, "sex": "Males", "no_of_graduates": "282", "type_of_course": "Business & Administration", "year": "1993"}, {"_id": 7, "sex": "Males", "no_of_graduates": "92", "type_of_course": "Law", "year": "1993"}, {"_id": 8, "sex": "Males", "no_of_graduates": "404", "type_of_course": "Natural, Physical & Mathematical Sciences", "year": "1993"}, {"_id": 9, "sex": "Males", "no_of_graduates": "95", "type_of_course": "Medicine", "year": "1993"}, {"_id": 10, "sex": "Males", "no_of_graduates": "14", "type_of_course": "Dentistry", "year": "1993"}, {"_id": 11, "sex": "Males", "no_of_graduates": "10", "type_of_course": "Health Sciences", "year": "1993"}, {"_id": 12, "sex": "Males", "no_of_graduates": "264", "type_of_course": "Information Technology", "year": "1993"}, {"_id": 13, "sex": "Males", "no_of_graduates": "132", "type_of_course": "Architecture & Building", "year": "1993"}, {"_id": 14, "sex": "Males", "no_of_graduates": "1496", "type_of_course": "Engineering Sciences", "year": "1993"}, {"_id": 15, "sex": "Males", "no_of_graduates": "na", "type_of_course": "Services", "year": "1993"}, {"_id": 16, "sex": "Females", "no_of_graduates": "na", "type_of_course": "Education", "year": "1993"}, {"_id": 17, "sex": "Females", "no_of_graduates": "na", "type_of_course": "Applied Arts", "year": "1993"}, {"_id": 18, "sex": "Females", "no_of_graduates": "1173", "type_of_course": "Humanities & Social Sciences", "year": "1993"}, {"_id": 19, "sex": "Females", "no_of_graduates": "na", "type_of_course": "Mass Communication", "year": "1993"}, {"_id": 20, "sex": "Females", "no_of_graduates": "396", "type_of_course": "Accountancy", "year": "1993"}, {"_id": 21, "sex": "Females", "no_of_graduates": "708", "type_of_course": "Business & Administration", "year": "1993"}, {"_id": 22, "sex": "Females", "no_of_graduates": "93", "type_of_course": "Law", "year": "1993"}, {"_id": 23, "sex": "Females", "no_of_graduates": "588", "type_of_course": "Natural, Physical & Mathematical Sciences", "year": "1993"}, {"_id": 24, "sex": "Females", "no_of_graduates": "61", "type_of_course": "Medicine", "year": "1993"}, {"_id": 25, "sex": "Females", "no_of_graduates": "11", "type_of_course": "Dentistry", "year": "1993"}, {"_id": 26, "sex": "Females", "no_of_graduates": "40", "type_of_course": "Health Sciences", "year": "1993"}, {"_id": 27, "sex": "Females", "no_of_graduates": "215", "type_of_course": "Information Technology", "year": "1993"}, {"_id": 28, "sex": "Females", "no_of_graduates": "144", "type_of_course": "Architecture & Building", "year": "1993"}, {"_id": 29, "sex": "Females", "no_of_graduates": "254", "type_of_course": "Engineering Sciences", "year": "1993"}, {"_id": 30, "sex": "Females", "no_of_graduates": "na", "type_of_course": "Services", "year": "1993"}, {"_id": 31, "sex": "Males", "no_of_graduates": "na", "type_of_course": "Education", "year": "1994"}, {"_id": 32, "sex": "Males", "no_of_graduates": "na", "type_of_course": "Applied Arts", "year": "1994"}, {"_id": 33, "sex": "Males", "no_of_graduates": "512", "type_of_course": "Humanities & Social Sciences", "year": "1994"}, {"_id": 34, "sex": "Males", "no_of_graduates": "na", "type_of_course": "Mass Communication", "year": "1994"}, {"_id": 35, "sex": "Males", "no_of_graduates": "271", "type_of_course": "Accountancy", "year": "1994"}, {"_id": 36, "sex": "Males", "no_of_graduates": "413", "type_of_course": "Business & Administration", "year": "1994"}, {"_id": 37, "sex": "Males", "no_of_graduates": "87", "type_of_course": "Law", "year": "1994"}, {"_id": 38, "sex": "Males", "no_of_graduates": "374", "type_of_course": "Natural, Physical & Mathematical Sciences", "year": "1994"}, {"_id": 39, "sex": "Males", "no_of_graduates": "99", "type_of_course": "Medicine", "year": "1994"}, {"_id": 40, "sex": "Males", "no_of_graduates": "23", "type_of_course": "Dentistry", "year": "1994"}, {"_id": 41, "sex": "Males", "no_of_graduates": "14", "type_of_course": "Health Sciences", "year": "1994"}, {"_id": 42, "sex": "Males", "no_of_graduates": "294", "type_of_course": "Information Technology", "year": "1994"}, {"_id": 43, "sex": "Males", "no_of_graduates": "136", "type_of_course": "Architecture & Building", "year": "1994"}, {"_id": 44, "sex": "Males", "no_of_graduates": "1666", "type_of_course": "Engineering Sciences", "year": "1994"}, {"_id": 45, "sex": "Males", "no_of_graduates": "na", "type_of_course": "Services", "year": "1994"}, {"_id": 46, "sex": "Females", "no_of_graduates": "na", "type_of_course": "Education", "year": "1994"}, {"_id": 47, "sex": "Females", "no_of_graduates": "na", "type_of_course": "Applied Arts", "year": "1994"}, {"_id": 48, "sex": "Females", "no_of_graduates": "1133", "type_of_course": "Humanities & Social Sciences", "year": "1994"}, {"_id": 49, "sex": "Females", "no_of_graduates": "na", "type_of_course": "Mass Communication", "year": "1994"}, {"_id": 50, "sex": "Females", "no_of_graduates": "378", "type_of_course": "Accountancy", "year": "1994"}, {"_id": 51, "sex": "Females", "no_of_graduates": "733", "type_of_course": "Business & Administration", "year": "1994"}, {"_id": 52, "sex": "Females", "no_of_graduates": "99", "type_of_course": "Law", "year": "1994"}, {"_id": 53, "sex": "Females", "no_of_graduates": "566", "type_of_course": "Natural, Physical & Mathematical Sciences", "year": "1994"}, {"_id": 54, "sex": "Females", "no_of_graduates": "66", "type_of_course": "Medicine", "year": "1994"}, {"_id": 55, "sex": "Females", "no_of_graduates": "6", "type_of_course": "Dentistry", "year": "1994"}, {"_id": 56, "sex": "Females", "no_of_graduates": "39", "type_of_course": "Health Sciences", "year": "1994"}, {"_id": 57, "sex": "Females", "no_of_graduates": "196", "type_of_course": "Information Technology", "year": "1994"}, {"_id": 58, "sex": "Females", "no_of_graduates": "182", "type_of_course": "Architecture & Building", "year": "1994"}, {"_id": 59, "sex": "Females", "no_of_graduates": "227", "type_of_course": "Engineering Sciences", "year": "1994"}, {"_id": 60, "sex": "Females", "no_of_graduates": "na", "type_of_course": "Services", "year": "1994"}, {"_id": 61, "sex": "Males", "no_of_graduates": "12", "type_of_course": "Education", "year": "1995"}, {"_id": 62, "sex": "Males", "no_of_graduates": "na", "type_of_course": "Applied Arts", "year": "1995"}, {"_id": 63, "sex": "Males", "no_of_graduates": "497", "type_of_course": "Humanities & Social Sciences", "year": "1995"}, {"_id": 64, "sex": "Males", "no_of_graduates": "na", "type_of_course": "Mass Communication", "year": "1995"}, {"_id": 65, "sex": "Males", "no_of_graduates": "289", "type_of_course": "Accountancy", "year": "1995"}, {"_id": 66, "sex": "Males", "no_of_graduates": "365", "type_of_course": "Business & Administration", "year": "1995"}, {"_id": 67, "sex": "Males", "no_of_graduates": "94", "type_of_course": "Law", "year": "1995"}, {"_id": 68, "sex": "Males", "no_of_graduates": "460", "type_of_course": "Natural, Physical & Mathematical Sciences", "year": "1995"}, {"_id": 69, "sex": "Males", "no_of_graduates": "93", "type_of_course": "Medicine", "year": "1995"}, {"_id": 70, "sex": "Males", "no_of_graduates": "20", "type_of_course": "Dentistry", "year": "1995"}, {"_id": 71, "sex": "Males", "no_of_graduates": "12", "type_of_course": "Health Sciences", "year": "1995"}, {"_id": 72, "sex": "Males", "no_of_graduates": "306", "type_of_course": "Information Technology", "year": "1995"}, {"_id": 73, "sex": "Males", "no_of_graduates": "140", "type_of_course": "Architecture & Building", "year": "1995"}, {"_id": 74, "sex": "Males", "no_of_graduates": "1715", "type_of_course": "Engineering Sciences", "year": "1995"}, {"_id": 75, "sex": "Males", "no_of_graduates": "na", "type_of_course": "Services", "year": "1995"}, {"_id": 76, "sex": "Females", "no_of_graduates": "101", "type_of_course": "Education", "year": "1995"}, {"_id": 77, "sex": "Females", "no_of_graduates": "na", "type_of_course": "Applied Arts", "year": "1995"}, {"_id": 78, "sex": "Females", "no_of_graduates": "1240", "type_of_course": "Humanities & Social Sciences", "year": "1995"}, {"_id": 79, "sex": "Females", "no_of_graduates": "na", "type_of_course": "Mass Communication", "year": "1995"}, {"_id": 80, "sex": "Females", "no_of_graduates": "395", "type_of_course": "Accountancy", "year": "1995"}, {"_id": 81, "sex": "Females", "no_of_graduates": "788", "type_of_course": "Business & Administration", "year": "1995"}, {"_id": 82, "sex": "Females", "no_of_graduates": "100", "type_of_course": "Law", "year": "1995"}, {"_id": 83, "sex": "Females", "no_of_graduates": "572", "type_of_course": "Natural, Physical & Mathematical Sciences", "year": "1995"}, {"_id": 84, "sex": "Females", "no_of_graduates": "48", "type_of_course": "Medicine", "year": "1995"}, {"_id": 85, "sex": "Females", "no_of_graduates": "8", "type_of_course": "Dentistry", "year": "1995"}, {"_id": 86, "sex": "Females", "no_of_graduates": "46", "type_of_course": "Health Sciences", "year": "1995"}, {"_id": 87, "sex": "Females", "no_of_graduates": "193", "type_of_course": "Information Technology", "year": "1995"}, {"_id": 88, "sex": "Females", "no_of_graduates": "156", "type_of_course": "Architecture & Building", "year": "1995"}, {"_id": 89, "sex": "Females", "no_of_graduates": "276", "type_of_course": "Engineering Sciences", "year": "1995"}, {"_id": 90, "sex": "Females", "no_of_graduates": "na", "type_of_course": "Services", "year": "1995"}, {"_id": 91, "sex": "Males", "no_of_graduates": "46", "type_of_course": "Education", "year": "1996"}, {"_id": 92, "sex": "Males", "no_of_graduates": "na", "type_of_course": "Applied Arts", "year": "1996"}, {"_id": 93, "sex": "Males", "no_of_graduates": "497", "type_of_course": "Humanities & Social Sciences", "year": "1996"}, {"_id": 94, "sex": "Males", "no_of_graduates": "na", "type_of_course": "Mass Communication", "year": "1996"}, {"_id": 95, "sex": "Males", "no_of_graduates": "262", "type_of_course": "Accountancy", "year": "1996"}, {"_id": 96, "sex": "Males", "no_of_graduates": "358", "type_of_course": "Business & Administration", "year": "1996"}, {"_id": 97, "sex": "Males", "no_of_graduates": "75", "type_of_course": "Law", "year": "1996"}, {"_id": 98, "sex": "Males", "no_of_graduates": "449", "type_of_course": "Natural, Physical & Mathematical Sciences", "year": "1996"}, {"_id": 99, "sex": "Males", "no_of_graduates": "97", "type_of_course": "Medicine", "year": "1996"}, {"_id": 100, "sex": "Males", "no_of_graduates": "24", "type_of_course": "Dentistry", "year": "1996"}], "_links": {"start": "/api/action/datastore_search?resource_id=eb8b932c-503c-41e7-b513-114cffbe2338", "next": "/api/action/datastore_search?offset=100&resource_id=eb8b932c-503c-41e7-b513-114cffbe2338"}, "total": 660}}